L M 7
L L L L L L L L L L L
M M M M M M M M M M M 
7 7 7 7 7 L I M A M I L O
M O L Y N A 
AMBER AMULETT
7 7 7 7 7 7 7 7 
9 7 5 9 7 1 7 7 
0 7 1 7 7 9 9 7 7 7 
L L L L L L L L L L L 
O L D 
L A M B C H O   P
P P P P P P P P P 
P P P 
D I P O L E 
L O L A R polar
O U N C E pounce
H U N T A N D P O U N C E 
S E A R C H
[BT] BT BT [BT] just a pause or -- or = or uhhhhhh
HW how (do you copy?)
P P P QRP decr power
QRL freq. in use
qrm man made interference
QSL certify contact 
X X X X X X X X X X X X X X X 
X P P P X X X 
DX foreign country
DX CQ DX CQ DX looking for foreign country
DR DR dear
AMP
OM old man
YL young lady
XYL ex young lady, wife
WIFE .-- .. ..-. . more efficient
XYL  -..- -.-- .-.. 
PXPPPXXX
EXPERT
3 3 3 3 3 3 3 3 3 3
3 5 9 mediocre signal report
7 3 best wishes, goodbye
73
73
73
5 7 9 very good signal
3 3 8 not so good
HEXBEAM type of antenna
MOXON like hexbeam
SIMPLEX 
TRANSCEIVER XCVR
XMIT transmit
XXXX
ICANDOTHATC[HH]KN

ke0dzx
INEEDACWCHEATSHEETPOSTERINMYSHACK[KN]

ke0boz

pete
VICTORY

michael
CQ CQ CQ KE 0 BD

23 5

ke0vmh
IDIDITKN
or ididukn?

you did it
my fair lady

bill ke0lml

travis ke0dmt
X CQ CQ K0DMT


