session 12

monday
1 1 1 1 1 1 1 1 1 1 1 1
1 0 8 1 1 0 0 1 1 5 1
1 1 1 1 1 1 
1 0 8 1 1 0 0 1 1 5 1 
V V V V V V V V V V V V V V V V V V V
V V V
Y Y Y Y Y Y Y Y Y Y
VY very
QSV
QRV ready
QRQ send faster
QRO incr. power
QTC i have messages for the net
QTR time
QSY change frequency
DN move down n khz
SRI sorry

wednesday
U U U U U U U U U U U U U U U U
B B B B B B B B B B B B
B U B B A
B U B B 
A B O U T 
H O W N O W B R O W N C O W 
U N D E R T H E B O A R W A L K 
9 9 9 9 9 9 9 9 9 9 9 9 9 9 9 9 
9 1 1 5 9 9 
[BT] BT BT [BT] dropped pencil [AS] [AS] AS wait
HW HW how RU HW RU how are you UR your you're
qsb fading
qru no messages
L L L L L L L L L L L L M M M M M M M M M M
L E M O N A L O O N D 
L L L M M M A L U M I N U M 
7 7 7 7 7 7 7 7 7 7 7 7 
7 7 9 1 5 5 7 9 7
ke0baz michael

E A T A H E A R T Y L U N C H O N T U E S I H E A R T H E B R A T W U R S T A R 8 T O 1 0 I N C H E S O V R T H E R Y U M 9 U C K S A 
repeater time out exit
EAT A HEARTY LUNCH ON TUES I HEART HEBRETWUTARE 8T010 INCHES OVER THERE YUM 
BUCKS A BEER SO USIN AN E BETTER DRIK KOOL AID INSTEAD SERUABLE TO SWALLOW NON
BEER DEINK SHIHI CATCH ULATL
eat a hearty lunch on tues i hear the bratwurst are 8 to 10 inches over there yum
9 bucks a beer so insane better drink kool aid instead are you able to swallow non
bear drinks hihi catch u later

THIS IS REWRNMSR [HH] MORSE KC 9K0DD
this is learn ms[hh] morse kc 2019 k0dzx

ross kc0pla

michael ke0boz

joyce kc8phd
VIDEO TAE CS[HH] WEBIT E 
video on ecs website

michael ke0boz
IATN[HH] ATN ONE TOAD i ate one toad
i ate one toad


